<svg xmlns="http://www.w3.org/2000/svg" width="16.669" height="32.097" viewBox="0 0 16.669 32.097">
  <g id="facebook-logo_1_" data-name="facebook-logo (1)" transform="translate(-23.127)">
    <path id="Path_415" data-name="Path 415" d="M39.8,5.328H36.774c-2.369,0-2.828,1.126-2.828,2.778V11.75H39.6l0,5.706H33.947V32.1H28.054V17.456H23.127V11.75h4.927V7.542C28.054,2.659,31.037,0,35.393,0l4.4.007V5.328Z" fill="#fff"/>
  </g>
</svg>
